%YAML 1.1
%TAG !u! tag:unity3d.com,2011:
--- !u!114 &11400000
MonoBehaviour:
  m_ObjectHideFlags: 0
  m_CorrespondingSourceObject: {fileID: 0}
  m_PrefabInstance: {fileID: 0}
  m_PrefabAsset: {fileID: 0}
  m_GameObject: {fileID: 0}
  m_Enabled: 1
  m_EditorHideFlags: 0
  m_Script: {fileID: 11500000, guid: 95e66c6366d904e98bc83428217d4fd7, type: 3}
  m_Name: PlayerTankController
  m_EditorClassIdentifier: 
  _data:
    _json: '{"graph":{"variables":{"Kind":"Flow","collection":{"$content":[],"$version":"A"},"$version":"A"},"controlInputDefinitions":[],"controlOutputDefinitions":[],"valueInputDefinitions":[],"valueOutputDefinitions":[],"title":"PlayerTankController","summary":null,"pan":{"x":609.1869,"y":581.7167},"zoom":0.25,"elements":[{"coroutine":false,"defaultValues":{},"position":{"x":-360.0,"y":-1161.0},"guid":"e35b5aca-d371-452f-af9c-fee9a69ab078","$version":"A","$type":"Unity.VisualScripting.Update","$id":"9"},{"defaultValues":{},"position":{"x":697.0,"y":-993.0},"guid":"e8e3133a-3291-492b-949d-ea19c318fb91","$version":"A","$type":"Unity.VisualScripting.GenericMultiply","$id":"11"},{"coroutine":false,"defaultValues":{},"position":{"x":-449.0,"y":334.0},"guid":"19589f40-03ce-4684-b0ba-3de0973fafdf","$version":"A","$type":"Unity.VisualScripting.Update","$id":"13"},{"specifyFallback":false,"kind":"Object","defaultValues":{"name":{"$content":"RotationAxis","$type":"System.String"},"object":null},"position":{"x":325.0,"y":-486.0},"guid":"26398c21-91e3-42c8-a918-a31715069bb5","$version":"A","$type":"Unity.VisualScripting.GetVariable","$id":"15"},{"chainable":false,"member":{"name":"Rotate","parameterTypes":["UnityEngine.Vector3"],"targetType":"UnityEngine.Transform","targetTypeName":"UnityEngine.Transform","$version":"A"},"defaultValues":{"target":null,"%eulers":{"x":0.0,"y":0.0,"z":0.0,"$type":"UnityEngine.Vector3"}},"position":{"x":1048.0,"y":-1408.0},"guid":"24d7e81f-6dd0-4e6c-aa43-45541bc6e68a","$version":"A","$type":"Unity.VisualScripting.InvokeMember","$id":"17"},{"defaultValues":{},"position":{"x":852.0,"y":-1224.0},"guid":"94c8829a-8751-4a30-a3d8-081de99a27a4","$version":"A","$type":"Unity.VisualScripting.GenericMultiply","$id":"20"},{"specifyFallback":false,"kind":"Object","defaultValues":{"name":{"$content":"RotationSpeed","$type":"System.String"},"object":null},"position":{"x":251.0,"y":-944.0},"guid":"9934ca99-b6c2-4c08-aea4-e6b5c46a2143","$version":"A","$type":"Unity.VisualScripting.GetVariable","$id":"22"},{"member":{"name":"deltaTime","parameterTypes":null,"targetType":"UnityEngine.Time","targetTypeName":"UnityEngine.Time","$version":"A"},"defaultValues":{},"position":{"x":404.0,"y":517.0},"guid":"05685fda-3ade-40b3-8931-5ce452c8644a","$version":"A","$type":"Unity.VisualScripting.GetMember","$id":"24"},{"member":{"name":"deltaTime","parameterTypes":null,"targetType":"UnityEngine.Time","targetTypeName":"UnityEngine.Time","$version":"A"},"defaultValues":{},"position":{"x":601.0,"y":-170.0},"guid":"b2fe87cb-17c0-45ac-aa0c-b29422328cc0","$version":"A","$type":"Unity.VisualScripting.GetMember","$id":"27"},{"specifyFallback":false,"kind":"Object","defaultValues":{"name":{"$content":"RotationSpeed","$type":"System.String"},"object":null},"position":{"x":467.0,"y":-354.0},"guid":"fe110180-1bbb-4df4-bcbc-ba586f46d92f","$version":"A","$type":"Unity.VisualScripting.GetVariable","$id":"30"},{"chainable":false,"member":{"name":"GetKey","parameterTypes":["System.String"],"targetType":"UnityEngine.Input","targetTypeName":"UnityEngine.Input","$version":"A"},"defaultValues":{"%name":{"$content":"W","$type":"System.String"}},"position":{"x":199.0,"y":27.0},"guid":"d3cc7b70-313e-4538-a289-20b9f67577f0","$version":"A","$type":"Unity.VisualScripting.InvokeMember","$id":"32"},{"chainable":false,"member":{"name":"Translate","parameterTypes":["UnityEngine.Vector3"],"targetType":"UnityEngine.Transform","targetTypeName":"UnityEngine.Transform","$version":"A"},"defaultValues":{"target":null,"%translation":{"x":0.0,"y":0.0,"z":0.0,"$type":"UnityEngine.Vector3"}},"position":{"x":1101.0,"y":26.0},"guid":"e122d693-ec7b-494f-9afc-a54dec381431","$version":"A","$type":"Unity.VisualScripting.InvokeMember","$id":"35"},{"defaultValues":{},"position":{"x":708.0,"y":495.0},"guid":"e9c15da1-2658-4a80-b2ef-acff29121558","$version":"A","$type":"Unity.VisualScripting.GenericMultiply","$id":"38"},{"defaultValues":{},"position":{"x":1001.0,"y":-484.0},"guid":"6bbbb0f3-3b9f-4d3b-81b2-1d6a45e2cf3c","$version":"A","$type":"Unity.VisualScripting.GenericMultiply","$id":"40"},{"chainable":false,"member":{"name":"GetKey","parameterTypes":["System.String"],"targetType":"UnityEngine.Input","targetTypeName":"UnityEngine.Input","$version":"A"},"defaultValues":{"%name":{"$content":"","$type":"System.String"}},"position":{"x":207.0,"y":770.0},"guid":"34693c5e-ec8d-4ab9-ada8-484274668086","$version":"A","$type":"Unity.VisualScripting.InvokeMember","$id":"42"},{"chainable":false,"member":{"name":"GetKey","parameterTypes":["System.String"],"targetType":"UnityEngine.Input","targetTypeName":"UnityEngine.Input","$version":"A"},"defaultValues":{"%name":{"$content":"A","$type":"System.String"}},"position":{"x":212.0,"y":-1404.0},"guid":"cf52e88e-aab8-413b-9fe4-a46af427741c","$version":"A","$type":"Unity.VisualScripting.InvokeMember","$id":"45"},{"specifyFallback":false,"kind":"Object","defaultValues":{"name":{"$content":"MoveAxis","$type":"System.String"},"object":null},"position":{"x":323.0,"y":965.0},"guid":"80c357e3-39d1-43a8-af0a-6c46b6c6e3c1","$version":"A","$type":"Unity.VisualScripting.GetVariable","$id":"48"},{"chainable":false,"member":{"name":"Rotate","parameterTypes":["UnityEngine.Vector3"],"targetType":"UnityEngine.Transform","targetTypeName":"UnityEngine.Transform","$version":"A"},"defaultValues":{"target":null,"%eulers":{"x":0.0,"y":0.0,"z":0.0,"$type":"UnityEngine.Vector3"}},"position":{"x":1320.0,"y":-668.0},"guid":"1c3cbf74-3c15-4eb8-966d-aae0171053cc","$version":"A","$type":"Unity.VisualScripting.InvokeMember","$id":"50"},{"defaultValues":{},"position":{"x":821.0,"y":-351.0},"guid":"4c79b532-b3cc-4835-b6a1-090b3b6eaa08","$version":"A","$type":"Unity.VisualScripting.GenericMultiply","$id":"53"},{"member":{"name":"deltaTime","parameterTypes":null,"targetType":"UnityEngine.Time","targetTypeName":"UnityEngine.Time","$version":"A"},"defaultValues":{},"position":{"x":417.0,"y":1366.0},"guid":"2545b016-2bf4-4c33-92e7-9148fc0f5ad1","$version":"A","$type":"Unity.VisualScripting.GetMember","$id":"55"},{"specifyFallback":false,"kind":"Object","defaultValues":{"name":{"$content":"MoveSpeed","$type":"System.String"},"object":null},"position":{"x":400.0,"y":1127.0},"guid":"8473c708-cf45-4e37-87d7-35cf9fce6d73","$version":"A","$type":"Unity.VisualScripting.GetVariable","$id":"58"},{"defaultValues":{},"position":{"x":675.0,"y":1173.0},"guid":"41d3918d-1653-4415-a0b4-c1f347287e64","$version":"A","$type":"Unity.VisualScripting.GenericMultiply","$id":"60"},{"defaultValues":{},"position":{"x":870.0,"y":960.0},"guid":"5eca2b5f-68df-4006-ad07-4a2f7158af7f","$version":"A","$type":"Unity.VisualScripting.GenericMultiply","$id":"62"},{"member":{"name":"deltaTime","parameterTypes":null,"targetType":"UnityEngine.Time","targetTypeName":"UnityEngine.Time","$version":"A"},"defaultValues":{},"position":{"x":398.0,"y":-804.0},"guid":"dcf1f2d2-6bd2-4eb5-b98e-aaf03ebebebb","$version":"A","$type":"Unity.VisualScripting.GetMember","$id":"64"},{"chainable":false,"member":{"name":"Translate","parameterTypes":["UnityEngine.Vector3"],"targetType":"UnityEngine.Transform","targetTypeName":"UnityEngine.Transform","$version":"A"},"defaultValues":{"target":null,"%translation":{"x":0.0,"y":0.0,"z":0.0,"$type":"UnityEngine.Vector3"}},"position":{"x":1084.0,"y":768.0},"guid":"a02bcc07-08d2-4cd1-8110-f5fa0ae11c2c","$version":"A","$type":"Unity.VisualScripting.InvokeMember","$id":"67"},{"specifyFallback":false,"kind":"Object","defaultValues":{"name":{"$content":"MoveSpeed","$type":"System.String"},"object":null},"position":{"x":443.0,"y":322.0},"guid":"1f7ef752-857d-4af1-af72-a667ed3b43f7","$version":"A","$type":"Unity.VisualScripting.GetVariable","$id":"70"},{"defaultValues":{},"position":{"x":841.0,"y":199.0},"guid":"628302bb-ca73-47cf-8798-9c8c8d3c4200","$version":"A","$type":"Unity.VisualScripting.GenericMultiply","$id":"72"},{"defaultValues":{},"position":{"x":-67.0,"y":-1163.0},"guid":"68d9ea36-8205-4bef-852a-c7f118cfdaf8","$version":"A","$type":"Unity.VisualScripting.If","$id":"74"},{"defaultValues":{},"position":{"x":7.0,"y":332.0},"guid":"d4d7ccc8-ad9d-4395-b5b9-401f436b647f","$version":"A","$type":"Unity.VisualScripting.If","$id":"76"},{"chainable":false,"member":{"name":"GetKey","parameterTypes":["System.String"],"targetType":"UnityEngine.Input","targetTypeName":"UnityEngine.Input","$version":"A"},"defaultValues":{"%name":{"$content":"D","$type":"System.String"}},"position":{"x":88.0,"y":-666.0},"guid":"2f6cf0b2-1a28-4a12-b966-6c14da0390a0","$version":"A","$type":"Unity.VisualScripting.InvokeMember","$id":"78"},{"specifyFallback":false,"kind":"Object","defaultValues":{"name":{"$content":"RotationAxis","$type":"System.String"},"object":null},"position":{"x":199.0,"y":-1112.0},"guid":"53389b23-7431-4aa1-a48f-0ed8e22a1d0e","$version":"A","$type":"Unity.VisualScripting.GetVariable","$id":"81"},{"specifyFallback":false,"kind":"Object","defaultValues":{"name":{"$content":"MoveAxis","$type":"System.String"},"object":null},"position":{"x":254.0,"y":196.0},"guid":"b4c2388e-5877-4258-86e6-0e031d0a3d79","$version":"A","$type":"Unity.VisualScripting.GetVariable","$id":"83"},{"sourceUnit":{"$ref":"45"},"sourceKey":"exit","destinationUnit":{"$ref":"17"},"destinationKey":"enter","guid":"d21bd026-8971-4e04-a00d-2f193088d7d3","$type":"Unity.VisualScripting.ControlConnection"},{"sourceUnit":{"$ref":"42"},"sourceKey":"exit","destinationUnit":{"$ref":"67"},"destinationKey":"enter","guid":"3425b706-18a6-4e51-b63d-f8af26d336ab","$type":"Unity.VisualScripting.ControlConnection"},{"sourceUnit":{"$ref":"32"},"sourceKey":"exit","destinationUnit":{"$ref":"35"},"destinationKey":"enter","guid":"59756fe3-b52a-471d-895e-e3904c8f8243","$type":"Unity.VisualScripting.ControlConnection"},{"sourceUnit":{"$ref":"74"},"sourceKey":"ifTrue","destinationUnit":{"$ref":"45"},"destinationKey":"enter","guid":"e414ffc0-a48c-41fc-b05f-96828111fa63","$type":"Unity.VisualScripting.ControlConnection"},{"sourceUnit":{"$ref":"76"},"sourceKey":"ifFalse","destinationUnit":{"$ref":"42"},"destinationKey":"enter","guid":"71ba2c5b-da94-4776-86b1-c1db05c78a35","$type":"Unity.VisualScripting.ControlConnection"},{"sourceUnit":{"$ref":"76"},"sourceKey":"ifTrue","destinationUnit":{"$ref":"32"},"destinationKey":"enter","guid":"4b566cc7-d7c6-49e0-aca9-b58c3f34bd07","$type":"Unity.VisualScripting.ControlConnection"},{"sourceUnit":{"$ref":"13"},"sourceKey":"trigger","destinationUnit":{"$ref":"76"},"destinationKey":"enter","guid":"47cbfe06-1118-4d59-a88f-6db3d87811dd","$type":"Unity.VisualScripting.ControlConnection"},{"sourceUnit":{"$ref":"74"},"sourceKey":"ifFalse","destinationUnit":{"$ref":"78"},"destinationKey":"enter","guid":"f1cb652a-5af3-4e12-8e73-89a359e22ece","$type":"Unity.VisualScripting.ControlConnection"},{"sourceUnit":{"$ref":"9"},"sourceKey":"trigger","destinationUnit":{"$ref":"74"},"destinationKey":"enter","guid":"0c4be9ca-761e-43a2-943e-8d1b45e74de8","$type":"Unity.VisualScripting.ControlConnection"},{"sourceUnit":{"$ref":"78"},"sourceKey":"exit","destinationUnit":{"$ref":"50"},"destinationKey":"enter","guid":"82448195-458d-420e-a704-ab9ee8284262","$type":"Unity.VisualScripting.ControlConnection"},{"sourceUnit":{"$ref":"81"},"sourceKey":"value","destinationUnit":{"$ref":"20"},"destinationKey":"a","guid":"5b43d375-9451-46e2-8bb4-5b93ad225fea","$type":"Unity.VisualScripting.ValueConnection"},{"sourceUnit":{"$ref":"72"},"sourceKey":"product","destinationUnit":{"$ref":"35"},"destinationKey":"%translation","guid":"4425d343-f7bf-4090-ba4f-ecf9e0d810e4","$type":"Unity.VisualScripting.ValueConnection"},{"sourceUnit":{"$ref":"38"},"sourceKey":"product","destinationUnit":{"$ref":"72"},"destinationKey":"b","guid":"60841ac0-6322-4316-8fac-dd58bd612740","$type":"Unity.VisualScripting.ValueConnection"},{"sourceUnit":{"$ref":"83"},"sourceKey":"value","destinationUnit":{"$ref":"72"},"destinationKey":"a","guid":"35fa349d-989d-40f2-b1e3-5bdc1ea2f6cf","$type":"Unity.VisualScripting.ValueConnection"},{"sourceUnit":{"$ref":"53"},"sourceKey":"product","destinationUnit":{"$ref":"40"},"destinationKey":"b","guid":"5afab5bc-2b2b-4f48-8b86-439818c31984","$type":"Unity.VisualScripting.ValueConnection"},{"sourceUnit":{"$ref":"40"},"sourceKey":"product","destinationUnit":{"$ref":"50"},"destinationKey":"%eulers","guid":"335af894-21bf-449d-aa87-77a1f35b2bc6","$type":"Unity.VisualScripting.ValueConnection"},{"sourceUnit":{"$ref":"27"},"sourceKey":"value","destinationUnit":{"$ref":"53"},"destinationKey":"b","guid":"2570daff-2c51-4b0a-99b2-eba8c8d47e2e","$type":"Unity.VisualScripting.ValueConnection"},{"sourceUnit":{"$ref":"58"},"sourceKey":"value","destinationUnit":{"$ref":"60"},"destinationKey":"a","guid":"4549f4ab-71e7-4242-a5ce-004ac715cf45","$type":"Unity.VisualScripting.ValueConnection"},{"sourceUnit":{"$ref":"60"},"sourceKey":"product","destinationUnit":{"$ref":"62"},"destinationKey":"b","guid":"f8e6cdb1-ac79-43d7-b996-602e70447ac0","$type":"Unity.VisualScripting.ValueConnection"},{"sourceUnit":{"$ref":"48"},"sourceKey":"value","destinationUnit":{"$ref":"62"},"destinationKey":"a","guid":"72339eab-2fe5-4a1d-aa98-6c52da2341a3","$type":"Unity.VisualScripting.ValueConnection"},{"sourceUnit":{"$ref":"62"},"sourceKey":"product","destinationUnit":{"$ref":"67"},"destinationKey":"%translation","guid":"94327c90-ceac-4385-a9cd-e7d7421b7466","$type":"Unity.VisualScripting.ValueConnection"},{"sourceUnit":{"$ref":"70"},"sourceKey":"value","destinationUnit":{"$ref":"38"},"destinationKey":"a","guid":"2f7f8f8e-cd1e-4b38-a736-d7db9e7a822a","$type":"Unity.VisualScripting.ValueConnection"},{"sourceUnit":{"$ref":"30"},"sourceKey":"value","destinationUnit":{"$ref":"53"},"destinationKey":"a","guid":"4b5bd6f8-86c1-4aa4-b5b1-083cf342f891","$type":"Unity.VisualScripting.ValueConnection"},{"sourceUnit":{"$ref":"64"},"sourceKey":"value","destinationUnit":{"$ref":"11"},"destinationKey":"b","guid":"a8ec6637-111a-405b-91cc-4d24a3b21720","$type":"Unity.VisualScripting.ValueConnection"},{"sourceUnit":{"$ref":"11"},"sourceKey":"product","destinationUnit":{"$ref":"20"},"destinationKey":"b","guid":"8d4248ca-9064-4a53-982d-23c9ff4ee627","$type":"Unity.VisualScripting.ValueConnection"},{"sourceUnit":{"$ref":"20"},"sourceKey":"product","destinationUnit":{"$ref":"17"},"destinationKey":"%eulers","guid":"3ff46211-6ce2-4c96-8b88-1e47632bc03a","$type":"Unity.VisualScripting.ValueConnection"},{"sourceUnit":{"$ref":"15"},"sourceKey":"value","destinationUnit":{"$ref":"40"},"destinationKey":"a","guid":"eee76623-d526-49bf-bd15-62159aaba17d","$type":"Unity.VisualScripting.ValueConnection"},{"sourceUnit":{"$ref":"55"},"sourceKey":"value","destinationUnit":{"$ref":"60"},"destinationKey":"b","guid":"991dd02d-fbdb-4782-b2bf-a8b56aa821ab","$type":"Unity.VisualScripting.ValueConnection"},{"sourceUnit":{"$ref":"22"},"sourceKey":"value","destinationUnit":{"$ref":"11"},"destinationKey":"a","guid":"2822febc-9f96-4dcc-afda-a716bc949866","$type":"Unity.VisualScripting.ValueConnection"},{"sourceUnit":{"$ref":"24"},"sourceKey":"value","destinationUnit":{"$ref":"38"},"destinationKey":"b","guid":"b2184ea1-3318-4f89-9660-0e78189b1122","$type":"Unity.VisualScripting.ValueConnection"}],"$version":"A"}}'
    _objectReferences: []
